3 Data wrangling part 2 – Introduction to R
…
It’s difficult to see patterns until we start to evaluate some of the differences. It’s also setup in a way to let us easily group by different variables. We could ask a simple question: how does total catch vary across species (ignoring gear differences)?

First we can use group_by. Notice the new information at the top of the output.

by_spp <- group_by(gatherdat, Species)
by_spp

# A tibble: 17,064 × 8
# Groups:   Species [6]
   OBJECTID Reference     Sampling_Date    yr  Gear ExDate              Species 
      <dbl> <chr>         <date>        <dbl> <dbl> <dttm>              <chr>   
 1  1550020 TBM1996032006 1996-03-20     1996   300 2018-04-12 10:27:38 Bluefish
 2  1550749 TBM1996032004 1996-03-20     1996    22 2018-04-12 10:25:23 Bluefish
 3  1550750 TBM1996032004 1996-03-20     1996    22 2018-04-12 10:25:23 Bluefish
 4  1550762 TBM1996032207 1996-03-22     1996    20 2018-04-12 10:25:23 Bluefish
 5  1550828 TBM1996042601 1996-04-26     1996   160 2018-04-12 10:25:23 Bluefish
 6  1550838 TBM1996051312 1996-05-13     1996   300 2018-04-12 10:25:23 Bluefish
 7  1550842 TBM1996051407 1996-05-14     1996   300 2018-04-12 10:25:23 Bluefish
 8  1551131 TBM1996051415 1996-05-14     1996   300 2018-04-12 10:27:38 Bluefish
 9  1551311 TBM1996032209 1996-03-22     1996   300 2018-04-12 10:25:20 Bluefish
10  1551335 TBM1996041807 1996-04-18     1996    22 2018-04-12 10:25:24 Bluefish
# ℹ 17,054 more rows
# ℹ 1 more variable: Count <dbl>
…
We can group the dataset by more than one column to get summaries with multiple groups. Here we can look at total count by each unique combination of gear and species.

by_spp_gear <- gatherdat %>%
  group_by(Species, Gear) %>%
  summarize(totals = sum(Count))
by_spp_gear

# A tibble: 36 × 3
# Groups:   Species [6]
   Species       Gear totals
   <chr>        <dbl>  <dbl>
 1 Bluefish        20      1
 2 Bluefish        22      0
 3 Bluefish       160      6
 4 Bluefish       251      0
 5 Bluefish       300      0
 6 Bluefish       301      0
 7 Common Snook    20     20
 8 Common Snook    22      0
 9 Common Snook   160   3866
10 Common Snook   251     12
# ℹ 26 more rows
…
